{
  "v": "4.6.6",
  "fr": 24,
  "ip": 0,
  "op": 48,
  "w": 800,
  "h": 800,
  "nm": "Pencil",
  "ddd": 0,
  "assets": [],
  "layers": [{
    "ddd": 0,
    "ind": 1,
    "ty": 4,
    "nm": "line",
    "ks": {
      "o": {
        "a": 0,
        "k": 100
      },
      "r": {
        "a": 0,
        "k": 0
      },
      "p": {
        "a": 0,
        "k": [400, 400, 0]
      },
      "a": {
        "a": 0,
        "k": [0, 0, 0]
      },
      "s": {
        "a": 0,
        "k": [100, 100, 100]
      }
    },
    "ao": 0,
    "shapes": [{
      "ty": "gr",
      "it": [{
        "ind": 0,
        "ty": "sh",
        "ix": 1,
        "ks": {
          "a": 0,
          "k": {
            "i": [
              [0, 0],
              [0, 0]
            ],
            "o": [
              [0, 0],
              [0, 0]
            ],
            "v": [
              [-198.875, 197.5],
              [197.938, 197.5]
            ],
            "c": false
          }
        },
        "nm": "Path 1",
        "mn": "ADBE Vector Shape - Group"
      }, {
        "ty": "tm",
        "s": {
          "a": 1,
          "k": [{
            "i": {
              "x": [0.667],
              "y": [1]
            },
            "o": {
              "x": [0.333],
              "y": [0]
            },
            "n": ["0p667_1_0p333_0"],
            "t": 9,
            "s": [0],
            "e": [100]
          }, {
            "t": 27
          }],
          "ix": 1
        },
        "e": {
          "a": 1,
          "k": [{
            "i": {
              "x": [0.442],
              "y": [1]
            },
            "o": {
              "x": [0.522],
              "y": [0]
            },
            "n": ["0p442_1_0p522_0"],
            "t": 0,
            "s": [0],
            "e": [100]
          }, {
            "t": 20
          }],
          "ix": 2
        },
        "o": {
          "a": 0,
          "k": 0,
          "ix": 3
        },
        "m": 1,
        "ix": 2,
        "nm": "Trim Paths 1",
        "mn": "ADBE Vector Filter - Trim"
      }, {
        "ty": "st",
        "c": {
          "a": 0,
          "k": [0, 0, 0, 1]
        },
        "o": {
          "a": 0,
          "k": 100
        },
        "w": {
          "a": 0,
          "k": 14
        },
        "lc": 1,
        "lj": 1,
        "ml": 4,
        "nm": "Stroke 1",
        "mn": "ADBE Vector Graphic - Stroke"
      }, {
        "ty": "tr",
        "p": {
          "a": 0,
          "k": [0, 0],
          "ix": 2
        },
        "a": {
          "a": 0,
          "k": [0, 0],
          "ix": 1
        },
        "s": {
          "a": 0,
          "k": [100, 100],
          "ix": 3
        },
        "r": {
          "a": 0,
          "k": 0,
          "ix": 6
        },
        "o": {
          "a": 0,
          "k": 100,
          "ix": 7
        },
        "sk": {
          "a": 0,
          "k": 0,
          "ix": 4
        },
        "sa": {
          "a": 0,
          "k": 0,
          "ix": 5
        },
        "nm": "Transform"
      }],
      "nm": "Shape 1",
      "np": 4,
      "cix": 2,
      "ix": 1,
      "mn": "ADBE Vector Group"
    }],
    "ip": 0,
    "op": 49,
    "st": 0,
    "bm": 0,
    "sr": 1
  }, {
    "ddd": 0,
    "ind": 2,
    "ty": 3,
    "nm": "pencilRot",
    "ks": {
      "o": {
        "a": 0,
        "k": 0
      },
      "r": {
        "a": 1,
        "k": [{
          "i": {
            "x": [0.256],
            "y": [1]
          },
          "o": {
            "x": [0.7],
            "y": [0]
          },
          "n": ["0p256_1_0p7_0"],
          "t": 20,
          "s": [0],
          "e": [-360]
        }, {
          "t": 48
        }]
      },
      "p": {
        "a": 1,
        "k": [{
          "i": {
            "x": 0.442,
            "y": 1
          },
          "o": {
            "x": 0.522,
            "y": 0
          },
          "n": "0p442_1_0p522_0",
          "t": 0,
          "s": [200, 422, 0],
          "e": [600, 422, 0],
          "to": [0, 0, 0],
          "ti": [0, 0, 0]
        }, {
          "i": {
            "x": 1,
            "y": 1
          },
          "o": {
            "x": 0.333,
            "y": 0
          },
          "n": "1_1_0p333_0",
          "t": 20,
          "s": [600, 422, 0],
          "e": [400, 217, 0],
          "to": [0, 0, 0],
          "ti": [194, 0, 0]
        }, {
          "i": {
            "x": 0.667,
            "y": 1
          },
          "o": {
            "x": 0,
            "y": 0
          },
          "n": "0p667_1_0_0",
          "t": 36,
          "s": [400, 217, 0],
          "e": [200, 422, 0],
          "to": [-179, 0, 0],
          "ti": [0, 0, 0]
        }, {
          "t": 48
        }]
      },
      "a": {
        "a": 0,
        "k": [0, 0, 0]
      },
      "s": {
        "a": 0,
        "k": [100, 100, 100]
      }
    },
    "ao": 0,
    "ip": 0,
    "op": 49,
    "st": 0,
    "bm": 0,
    "sr": 1
  }, {
    "ddd": 0,
    "ind": 3,
    "ty": 4,
    "nm": "pencil",
    "parent": 2,
    "ks": {
      "o": {
        "a": 0,
        "k": 100
      },
      "r": {
        "a": 1,
        "k": [{
          "i": {
            "x": [0.212],
            "y": [1]
          },
          "o": {
            "x": [0.469],
            "y": [0]
          },
          "n": ["0p212_1_0p469_0"],
          "t": 0,
          "s": [-6],
          "e": [11]
        }, {
          "i": {
            "x": [1],
            "y": [1]
          },
          "o": {
            "x": [0.441],
            "y": [0]
          },
          "n": ["1_1_0p441_0"],
          "t": 20,
          "s": [11],
          "e": [0]
        }, {
          "i": {
            "x": [0.415],
            "y": [1]
          },
          "o": {
            "x": [0],
            "y": [0]
          },
          "n": ["0p415_1_0_0"],
          "t": 36,
          "s": [0],
          "e": [-6]
        }, {
          "t": 48
        }]
      },
      "p": {
        "a": 0,
        "k": [0, 162.022, 0]
      },
      "a": {
        "a": 0,
        "k": [524.082, 810.037, 0]
      },
      "s": {
        "a": 0,
        "k": [60, 60, 100]
      }
    },
    "ao": 0,
    "shapes": [{
      "ty": "gr",
      "it": [{
        "ind": 0,
        "ty": "sh",
        "ix": 1,
        "ks": {
          "a": 0,
          "k": {
            "i": [
              [0, 0],
              [0, 0]
            ],
            "o": [
              [0, 0],
              [0, 0]
            ],
            "v": [
              [548, 341],
              [548, 657]
            ],
            "c": false
          }
        },
        "nm": "Path 1",
        "mn": "ADBE Vector Shape - Group"
      }, {
        "ty": "st",
        "c": {
          "a": 0,
          "k": [0, 0, 0, 1]
        },
        "o": {
          "a": 0,
          "k": 100
        },
        "w": {
          "a": 0,
          "k": 10
        },
        "lc": 1,
        "lj": 1,
        "ml": 10,
        "nm": "Stroke 1",
        "mn": "ADBE Vector Graphic - Stroke"
      }, {
        "ty": "tr",
        "p": {
          "a": 0,
          "k": [0, 0],
          "ix": 2
        },
        "a": {
          "a": 0,
          "k": [0, 0],
          "ix": 1
        },
        "s": {
          "a": 0,
          "k": [100, 100],
          "ix": 3
        },
        "r": {
          "a": 0,
          "k": 0,
          "ix": 6
        },
        "o": {
          "a": 0,
          "k": 100,
          "ix": 7
        },
        "sk": {
          "a": 0,
          "k": 0,
          "ix": 4
        },
        "sa": {
          "a": 0,
          "k": 0,
          "ix": 5
        },
        "nm": "Transform"
      }],
      "nm": "Group 1",
      "np": 2,
      "cix": 2,
      "ix": 1,
      "mn": "ADBE Vector Group"
    }, {
      "ty": "gr",
      "it": [{
        "ind": 0,
        "ty": "sh",
        "ix": 1,
        "ks": {
          "a": 0,
          "k": {
            "i": [
              [0, 0],
              [0, 0]
            ],
            "o": [
              [0, 0],
              [0, 0]
            ],
            "v": [
              [-0.063, -159.25],
              [0.063, 159.25]
            ],
            "c": false
          }
        },
        "nm": "Path 1",
        "mn": "ADBE Vector Shape - Group"
      }, {
        "ty": "st",
        "c": {
          "a": 0,
          "k": [0, 0, 0, 1]
        },
        "o": {
          "a": 0,
          "k": 100
        },
        "w": {
          "a": 0,
          "k": 10
        },
        "lc": 1,
        "lj": 1,
        "ml": 10,
        "nm": "Stroke 1",
        "mn": "ADBE Vector Graphic - Stroke"
      }, {
        "ty": "tr",
        "p": {
          "a": 0,
          "k": [500.063, 497.25],
          "ix": 2
        },
        "a": {
          "a": 0,
          "k": [0, 0],
          "ix": 1
        },
        "s": {
          "a": 0,
          "k": [100, 100],
          "ix": 3
        },
        "r": {
          "a": 0,
          "k": 0,
          "ix": 6
        },
        "o": {
          "a": 0,
          "k": 100,
          "ix": 7
        },
        "sk": {
          "a": 0,
          "k": 0,
          "ix": 4
        },
        "sa": {
          "a": 0,
          "k": 0,
          "ix": 5
        },
        "nm": "Transform"
      }],
      "nm": "Group 2",
      "np": 2,
      "cix": 2,
      "ix": 2,
      "mn": "ADBE Vector Group"
    }, {
      "ty": "gr",
      "it": [{
        "ind": 0,
        "ty": "sh",
        "ix": 1,
        "ks": {
          "a": 0,
          "k": {
            "i": [
              [0, 0],
              [13.222, 0],
              [0, 13.222]
            ],
            "o": [
              [0, 13.222],
              [-13.221, 0],
              [0, 0]
            ],
            "v": [
              [23.94, -11.97],
              [0, 11.97],
              [-23.94, -11.97]
            ],
            "c": false
          }
        },
        "nm": "Path 1",
        "mn": "ADBE Vector Shape - Group"
      }, {
        "ty": "st",
        "c": {
          "a": 0,
          "k": [0, 0, 0, 1]
        },
        "o": {
          "a": 0,
          "k": 100
        },
        "w": {
          "a": 0,
          "k": 10
        },
        "lc": 1,
        "lj": 1,
        "ml": 10,
        "nm": "Stroke 1",
        "mn": "ADBE Vector Graphic - Stroke"
      }, {
        "ty": "tr",
        "p": {
          "a": 0,
          "k": [524.06, 668.47],
          "ix": 2
        },
        "a": {
          "a": 0,
          "k": [0, 0],
          "ix": 1
        },
        "s": {
          "a": 0,
          "k": [100, 100],
          "ix": 3
        },
        "r": {
          "a": 0,
          "k": 0,
          "ix": 6
        },
        "o": {
          "a": 0,
          "k": 100,
          "ix": 7
        },
        "sk": {
          "a": 0,
          "k": 0,
          "ix": 4
        },
        "sa": {
          "a": 0,
          "k": 0,
          "ix": 5
        },
        "nm": "Transform"
      }],
      "nm": "Group 3",
      "np": 2,
      "cix": 2,
      "ix": 3,
      "mn": "ADBE Vector Group"
    }, {
      "ty": "gr",
      "it": [{
        "ind": 0,
        "ty": "sh",
        "ix": 1,
        "ks": {
          "a": 0,
          "k": {
            "i": [
              [0, 0],
              [-13.222, 0],
              [0, -13.221],
              [0, 0]
            ],
            "o": [
              [0, -13.222],
              [13.221, 0],
              [0, 0],
              [0, 0]
            ],
            "v": [
              [-23.939, -6.583],
              [0, -30.523],
              [23.94, -6.583],
              [0, 30.523]
            ],
            "c": true
          }
        },
        "nm": "Path 1",
        "mn": "ADBE Vector Shape - Group"
      }, {
        "ty": "fl",
        "c": {
          "a": 0,
          "k": [0, 0, 0, 1]
        },
        "o": {
          "a": 0,
          "k": 100
        },
        "r": 1,
        "nm": "Fill 1",
        "mn": "ADBE Vector Graphic - Fill"
      }, {
        "ty": "tr",
        "p": {
          "a": 0,
          "k": [524.06, 773.81],
          "ix": 2
        },
        "a": {
          "a": 0,
          "k": [0, 0],
          "ix": 1
        },
        "s": {
          "a": 0,
          "k": [100, 100],
          "ix": 3
        },
        "r": {
          "a": 0,
          "k": 0,
          "ix": 6
        },
        "o": {
          "a": 0,
          "k": 100,
          "ix": 7
        },
        "sk": {
          "a": 0,
          "k": 0,
          "ix": 4
        },
        "sa": {
          "a": 0,
          "k": 0,
          "ix": 5
        },
        "nm": "Transform"
      }],
      "nm": "Group 4",
      "np": 2,
      "cix": 2,
      "ix": 4,
      "mn": "ADBE Vector Group"
    }, {
      "ty": "gr",
      "it": [{
        "ind": 0,
        "ty": "sh",
        "ix": 1,
        "ks": {
          "a": 0,
          "k": {
            "i": [
              [0, 0],
              [6.412, 0],
              [0, 13.222]
            ],
            "o": [
              [-4.297, 4.104],
              [-13.222, 0],
              [0, 0]
            ],
            "v": [
              [20.236, 5.345],
              [3.704, 11.97],
              [-20.236, -11.97]
            ],
            "c": false
          }
        },
        "nm": "Path 1",
        "mn": "ADBE Vector Shape - Group"
      }, {
        "ty": "st",
        "c": {
          "a": 0,
          "k": [0, 0, 0, 1]
        },
        "o": {
          "a": 0,
          "k": 100
        },
        "w": {
          "a": 0,
          "k": 10
        },
        "lc": 1,
        "lj": 1,
        "ml": 10,
        "nm": "Stroke 1",
        "mn": "ADBE Vector Graphic - Stroke"
      }, {
        "ty": "tr",
        "p": {
          "a": 0,
          "k": [568.231, 668.47],
          "ix": 2
        },
        "a": {
          "a": 0,
          "k": [0, 0],
          "ix": 1
        },
        "s": {
          "a": 0,
          "k": [100, 100],
          "ix": 3
        },
        "r": {
          "a": 0,
          "k": 0,
          "ix": 6
        },
        "o": {
          "a": 0,
          "k": 100,
          "ix": 7
        },
        "sk": {
          "a": 0,
          "k": 0,
          "ix": 4
        },
        "sa": {
          "a": 0,
          "k": 0,
          "ix": 5
        },
        "nm": "Transform"
      }],
      "nm": "Group 5",
      "np": 2,
      "cix": 2,
      "ix": 5,
      "mn": "ADBE Vector Group"
    }, {
      "ty": "gr",
      "it": [{
        "ind": 0,
        "ty": "sh",
        "ix": 1,
        "ks": {
          "a": 0,
          "k": {
            "i": [
              [0, 0],
              [13.222, 0],
              [3.802, 2.543]
            ],
            "o": [
              [0, 13.222],
              [-4.917, 0],
              [0, 0]
            ],
            "v": [
              [18.616, -11.97],
              [-5.324, 11.97],
              [-18.616, 7.944]
            ],
            "c": false
          }
        },
        "nm": "Path 1",
        "mn": "ADBE Vector Shape - Group"
      }, {
        "ty": "st",
        "c": {
          "a": 0,
          "k": [0, 0, 0, 1]
        },
        "o": {
          "a": 0,
          "k": 100
        },
        "w": {
          "a": 0,
          "k": 10
        },
        "lc": 1,
        "lj": 1,
        "ml": 10,
        "nm": "Stroke 1",
        "mn": "ADBE Vector Graphic - Stroke"
      }, {
        "ty": "tr",
        "p": {
          "a": 0,
          "k": [481.509, 668.47],
          "ix": 2
        },
        "a": {
          "a": 0,
          "k": [0, 0],
          "ix": 1
        },
        "s": {
          "a": 0,
          "k": [100, 100],
          "ix": 3
        },
        "r": {
          "a": 0,
          "k": 0,
          "ix": 6
        },
        "o": {
          "a": 0,
          "k": 100,
          "ix": 7
        },
        "sk": {
          "a": 0,
          "k": 0,
          "ix": 4
        },
        "sa": {
          "a": 0,
          "k": 0,
          "ix": 5
        },
        "nm": "Transform"
      }],
      "nm": "Group 6",
      "np": 2,
      "cix": 2,
      "ix": 6,
      "mn": "ADBE Vector Group"
    }, {
      "ty": "gr",
      "it": [{
        "ind": 0,
        "ty": "sh",
        "ix": 1,
        "ks": {
          "a": 0,
          "k": {
            "i": [
              [0, 0],
              [-33.936, 0],
              [0, -34]
            ],
            "o": [
              [0, -34],
              [33.935, 0],
              [0, 0]
            ],
            "v": [
              [-61.446, 30.723],
              [0, -30.723],
              [61.446, 30.723]
            ],
            "c": false
          }
        },
        "nm": "Path 1",
        "mn": "ADBE Vector Shape - Group"
      }, {
        "ty": "st",
        "c": {
          "a": 0,
          "k": [0, 0, 0, 1]
        },
        "o": {
          "a": 0,
          "k": 100
        },
        "w": {
          "a": 0,
          "k": 20
        },
        "lc": 3,
        "lj": 1,
        "ml": 10,
        "nm": "Stroke 1",
        "mn": "ADBE Vector Graphic - Stroke"
      }, {
        "ty": "tr",
        "p": {
          "a": 0,
          "k": [524.06, 245.277],
          "ix": 2
        },
        "a": {
          "a": 0,
          "k": [0, 0],
          "ix": 1
        },
        "s": {
          "a": 0,
          "k": [100, 100],
          "ix": 3
        },
        "r": {
          "a": 0,
          "k": 0,
          "ix": 6
        },
        "o": {
          "a": 0,
          "k": 100,
          "ix": 7
        },
        "sk": {
          "a": 0,
          "k": 0,
          "ix": 4
        },
        "sa": {
          "a": 0,
          "k": 0,
          "ix": 5
        },
        "nm": "Transform"
      }],
      "nm": "Group 7",
      "np": 2,
      "cix": 2,
      "ix": 7,
      "mn": "ADBE Vector Group"
    }, {
      "ty": "gr",
      "it": [{
        "ind": 0,
        "ty": "sh",
        "ix": 1,
        "ks": {
          "a": 0,
          "k": {
            "i": [
              [0, 0],
              [0, 0],
              [0, 0],
              [0, 0]
            ],
            "o": [
              [0, 0],
              [0, 0],
              [0, 0],
              [0, 0]
            ],
            "v": [
              [61.446, 10.827],
              [-61.446, 10.827],
              [-61.446, -10.827],
              [61.446, -10.827]
            ],
            "c": true
          }
        },
        "nm": "Path 1",
        "mn": "ADBE Vector Shape - Group"
      }, {
        "ty": "fl",
        "c": {
          "a": 0,
          "k": [0, 0, 0, 1]
        },
        "o": {
          "a": 0,
          "k": 100
        },
        "r": 1,
        "nm": "Fill 1",
        "mn": "ADBE Vector Graphic - Fill"
      }, {
        "ty": "tr",
        "p": {
          "a": 0,
          "k": [524.06, 336.333],
          "ix": 2
        },
        "a": {
          "a": 0,
          "k": [0, 0],
          "ix": 1
        },
        "s": {
          "a": 0,
          "k": [100, 100],
          "ix": 3
        },
        "r": {
          "a": 0,
          "k": 0,
          "ix": 6
        },
        "o": {
          "a": 0,
          "k": 100,
          "ix": 7
        },
        "sk": {
          "a": 0,
          "k": 0,
          "ix": 4
        },
        "sa": {
          "a": 0,
          "k": 0,
          "ix": 5
        },
        "nm": "Transform"
      }],
      "nm": "Group 8",
      "np": 2,
      "cix": 2,
      "ix": 8,
      "mn": "ADBE Vector Group"
    }, {
      "ty": "gr",
      "it": [{
        "ind": 0,
        "ty": "sh",
        "ix": 1,
        "ks": {
          "a": 0,
          "k": {
            "i": [
              [0, 0],
              [0, 0],
              [0, 0],
              [0, 0],
              [0, 0]
            ],
            "o": [
              [0, 0],
              [0, 0],
              [0, 0],
              [0, 0],
              [0, 0]
            ],
            "v": [
              [61.446, 130.452],
              [0, 258.452],
              [-61.446, 130.452],
              [-61.446, -258.452],
              [61.446, -258.452]
            ],
            "c": true
          }
        },
        "nm": "Path 1",
        "mn": "ADBE Vector Shape - Group"
      }, {
        "ty": "st",
        "c": {
          "a": 0,
          "k": [0, 0, 0, 1]
        },
        "o": {
          "a": 0,
          "k": 100
        },
        "w": {
          "a": 0,
          "k": 20
        },
        "lc": 1,
        "lj": 1,
        "ml": 10,
        "nm": "Stroke 1",
        "mn": "ADBE Vector Graphic - Stroke"
      }, {
        "ty": "tr",
        "p": {
          "a": 0,
          "k": [524.06, 551.548],
          "ix": 2
        },
        "a": {
          "a": 0,
          "k": [0, 0],
          "ix": 1
        },
        "s": {
          "a": 0,
          "k": [100, 100],
          "ix": 3
        },
        "r": {
          "a": 0,
          "k": 0,
          "ix": 6
        },
        "o": {
          "a": 0,
          "k": 100,
          "ix": 7
        },
        "sk": {
          "a": 0,
          "k": 0,
          "ix": 4
        },
        "sa": {
          "a": 0,
          "k": 0,
          "ix": 5
        },
        "nm": "Transform"
      }],
      "nm": "Group 9",
      "np": 2,
      "cix": 2,
      "ix": 9,
      "mn": "ADBE Vector Group"
    }],
    "ip": 0,
    "op": 49,
    "st": 0,
    "bm": 0,
    "sr": 1
  }, {
    "ddd": 0,
    "ind": 4,
    "ty": 4,
    "nm": "Shape Layer 1",
    "ks": {
      "o": {
        "a": 0,
        "k": 100
      },
      "r": {
        "a": 0,
        "k": 0
      },
      "p": {
        "a": 0,
        "k": [400, 400, 0]
      },
      "a": {
        "a": 0,
        "k": [0, 0, 0]
      },
      "s": {
        "a": 0,
        "k": [100, 100, 100]
      }
    },
    "ao": 0,
    "shapes": [],
    "ip": 0,
    "op": 49,
    "st": 0,
    "bm": 0,
    "sr": 1
  }]
}